# Blender v2.78 (sub 0) OBJ File: 'cube.blend'
# www.blender.org
mtllib cube.mtl
o Cube
v 1.000000 -1.000000 -1.000000
v 1.000000 -1.000000 1.000000
v -1.000000 -1.000000 1.000000
v -1.000000 -1.000000 -1.000000
v 1.000000 1.000000 -0.999999
v 0.999999 1.000000 1.000001
v -1.000000 1.000000 1.000000
v -1.000000 1.000000 -1.000000
vt 0.4930 0.2563
vt 0.2560 0.4932
vt 0.2560 0.2563
vt 0.4942 0.9943
vt 0.2577 0.7577
vt 0.4942 0.7577
vt 0.4995 0.5018
vt 0.2564 0.7450
vt 0.2564 0.5018
vt 0.2484 0.7484
vt 0.0023 0.5023
vt 0.2484 0.5023
vt 1.0003 0.7490
vt 0.7609 0.5096
vt 1.0003 0.5096
vt 0.7437 0.5037
vt 0.5031 0.7443
vt 0.5031 0.5037
vt 0.4930 0.4932
vt 0.2577 0.9943
vt 0.4995 0.7450
vt 0.0023 0.7484
vt 0.7609 0.7490
vt 0.7437 0.7443
vn 0.0000 -1.0000 0.0000
vn 0.0000 1.0000 0.0000
vn 1.0000 -0.0000 0.0000
vn 0.0000 -0.0000 1.0000
vn -1.0000 -0.0000 -0.0000
vn 0.0000 0.0000 -1.0000
usemtl Material
s off
f 2/1/1 4/2/1 1/3/1
f 8/4/2 6/5/2 5/6/2
f 5/7/3 2/8/3 1/9/3
f 6/10/4 3/11/4 2/12/4
f 3/13/5 8/14/5 4/15/5
f 1/16/6 8/17/6 5/18/6
f 2/1/1 3/19/1 4/2/1
f 8/4/2 7/20/2 6/5/2
f 5/7/3 6/21/3 2/8/3
f 6/10/4 7/22/4 3/11/4
f 3/13/5 7/23/5 8/14/5
f 1/16/6 4/24/6 8/17/6
